{
    "version": "2.0.0",
    "tasks": [
        {
            "label": "build hs",
            "type": "shell",
            "command": "gcc",
            "args": [
                "-g", "main.c"
            ],
            "group": {
                "kind": "build",
                "isDefault": true
            }
        }
    ]
}
